…
There are total 6 variables and 50400 observations after tidying the
data. The “day” variable indicates the day of the week and the “days”
variable indicates if it is weekdays or weekends.

``` r
chf %>% 
  group_by(week, day_id, day) %>% 
  summarise(total_activity=sum(activity_counts)) 
```

    ## # A tibble: 35 x 4
    ## # Groups:   week, day_id [35]
    ##     week day_id day       total_activity
    ##    <dbl>  <dbl> <chr>              <dbl>
    ##  1     1      1 Friday           480543.
    ##  2     1      2 Monday            78828.
    ##  3     1      3 Saturday         376254 
    ##  4     1      4 Sunday           631105 
    ##  5     1      5 Thursday         355924.
    ##  6     1      6 Tuesday          307094.
    ##  7     1      7 Wednesday        340115.
    ##  8     2      8 Friday           568839 
    ##  9     2      9 Monday           295431 
    ## 10     2     10 Saturday         607175 
    ## # … with 25 more rows
…
